[{"line":1,"elements":[{"line":4,"name":"URL and PATH usage test case1","description":"","id":"url-and-path-usage-test-case1","type":"scenario","keyword":"Scenario","steps":[{"name":"url \"http:\/\/reqres.in\"","result":{"duration":2398400,"status":"passed"},"match":{"location":"karate","arguments":[]},"keyword":"Given","line":6,"doc_string":{"content_type":"","value":"16:46:24.334 skipping bootstrap configuration: could not find or read file: classpath:karate-config.js","line":6}},{"name":"path \"\/api\/users?page=2\"","result":{"duration":2339200,"status":"passed"},"match":{"location":"karate","arguments":[]},"keyword":"And","line":7},{"name":"method GET","result":{"duration":961636200,"status":"passed"},"match":{"location":"karate","arguments":[]},"keyword":"When","line":8,"doc_string":{"content_type":"","value":"16:46:24.743 request:\n1 > GET http:\/\/reqres.in\/api\/users%3Fpage=2\n1 > Accept-Encoding: gzip,deflate\n1 > Connection: Keep-Alive\n1 > Host: reqres.in\n1 > User-Agent: Apache-HttpClient\/4.5.12 (Java\/1.8.0_251)\n\n16:46:24.917 response time in milliseconds: 171.33\n1 < 301\n1 < CF-RAY: 5fb4a2b6888a19e5-SIN\n1 < Cache-Control: max-age=3600\n1 < Connection: keep-alive\n1 < Date: Wed, 02 Dec 2020 11:16:24 GMT\n1 < Expires: Wed, 02 Dec 2020 12:16:24 GMT\n1 < Location: https:\/\/reqres.in\/api\/users%3Fpage=2\n1 < NEL: {\"report_to\":\"cf-nel\",\"max_age\":604800}\n1 < Report-To: {\"endpoints\":[{\"url\":\"https:\\\/\\\/a.nel.cloudflare.com\\\/report?s=IkzgS%2Ba9ajH3Hg91bQocYydg%2FGXqhg139FtsCMmIDRJoY3AJ6Fg%2F%2BvCFpKZHrHLhCVj66VzIwEEQ4QLECE2izepqb9idiAp%2Bd8I%3D\"}],\"group\":\"cf-nel\",\"max_age\":604800}\n1 < Server: cloudflare\n1 < Transfer-Encoding: chunked\n1 < Vary: Accept-Encoding\n1 < cf-request-id: 06c4c40616000019e522360000000001\n\n16:46:24.921 request:\n2 > GET http:\/\/reqres.in\/api\/users%3Fpage=2\n2 > Accept-Encoding: gzip,deflate\n2 > Connection: Keep-Alive\n2 > Host: reqres.in\n2 > User-Agent: Apache-HttpClient\/4.5.12 (Java\/1.8.0_251)\n\n16:46:25.272 response time in milliseconds: 348.50\n2 < 200\n2 < Access-Control-Allow-Origin: *\n2 < Age: 2023\n2 < CF-Cache-Status: HIT\n2 < CF-RAY: 5fb4a2b8d9831acc-SIN\n2 < Cache-Control: max-age=14400\n2 < Connection: keep-alive\n2 < Content-Type: application\/json; charset=utf-8\n2 < Date: Wed, 02 Dec 2020 11:16:25 GMT\n2 < Etag: W\/\"2c1-N6Rqerxquq2kgQhL51EiSg4x0R8\"\n2 < Expect-CT: max-age=604800, report-uri=\"https:\/\/report-uri.cloudflare.com\/cdn-cgi\/beacon\/expect-ct\"\n2 < NEL: {\"report_to\":\"cf-nel\",\"max_age\":604800}\n2 < Report-To: {\"endpoints\":[{\"url\":\"https:\\\/\\\/a.nel.cloudflare.com\\\/report?s=95ULQztWaLhaxmj3N8RBdke1%2F6vb8zodkgrl82WyFOjOTb5fAtG5pq63LxILmv0oYVgBioeQK3fIbC0QiWBfjNKfwBMncr4%2F75E%3D\"}],\"group\":\"cf-nel\",\"max_age\":604800}\n2 < Server: cloudflare\n2 < Set-Cookie: __cfduid=d1c92260bb12cdfb38f4945db023a7b371606907785; expires=Fri, 01-Jan-21 11:16:25 GMT; path=\/; domain=.reqres.in; HttpOnly; SameSite=Lax; Secure\n2 < Transfer-Encoding: chunked\n2 < Vary: Accept-Encoding\n2 < Via: 1.1 vegur\n2 < X-Powered-By: Express\n2 < cf-request-id: 06c4c4078900001accee3ae000000001\n{\"page\":1,\"per_page\":6,\"total\":12,\"total_pages\":2,\"data\":[{\"id\":1,\"name\":\"cerulean\",\"year\":2000,\"color\":\"#98B2D1\",\"pantone_value\":\"15-4020\"},{\"id\":2,\"name\":\"fuchsia rose\",\"year\":2001,\"color\":\"#C74375\",\"pantone_value\":\"17-2031\"},{\"id\":3,\"name\":\"true red\",\"year\":2002,\"color\":\"#BF1932\",\"pantone_value\":\"19-1664\"},{\"id\":4,\"name\":\"aqua sky\",\"year\":2003,\"color\":\"#7BC4C4\",\"pantone_value\":\"14-4811\"},{\"id\":5,\"name\":\"tigerlily\",\"year\":2004,\"color\":\"#E2583E\",\"pantone_value\":\"17-1456\"},{\"id\":6,\"name\":\"blue turquoise\",\"year\":2005,\"color\":\"#53B0AE\",\"pantone_value\":\"15-5217\"}],\"support\":{\"url\":\"https:\/\/reqres.in\/#support-heading\",\"text\":\"To keep ReqRes free, contributions towards server costs are appreciated!\"}}","line":8}},{"name":"status 200","result":{"duration":9700,"status":"passed"},"match":{"location":"karate","arguments":[]},"keyword":"Then","line":9},{"name":"response.page == 1","result":{"duration":20796000,"status":"passed"},"match":{"location":"karate","arguments":[]},"keyword":"And","line":10},{"name":"match response.page == '##'","result":{"duration":5049000,"status":"passed"},"match":{"location":"karate","arguments":[]},"keyword":"And","line":11}]}],"name":"src\/test\/java\/FeatureFiles\/karate09.feature","description":"Karate Test Suite 09\nUsing URL and PATH","id":"karate-test-suite-09","keyword":"Feature","uri":"src\/test\/java\/FeatureFiles\/karate09.feature"}]