[{"line":1,"elements":[{"line":15,"name":"DDT Test Case","description":"","id":"ddt-test-case","type":"scenario","keyword":"Scenario Outline","steps":[{"name":"url \"http:\/\/reqres.in\"","result":{"duration":2183600,"status":"passed"},"match":{"location":"karate","arguments":[]},"keyword":"Given","line":7,"doc_string":{"content_type":"","value":"16:52:41.288 skipping bootstrap configuration: could not find or read file: classpath:karate-config.js","line":7}},{"name":"path \"\/api\/users?page='1'\"","result":{"duration":1542200,"status":"passed"},"match":{"location":"karate","arguments":[]},"keyword":"And","line":8},{"name":"method GET","result":{"duration":1303081200,"status":"passed"},"match":{"location":"karate","arguments":[]},"keyword":"When","line":9,"doc_string":{"content_type":"","value":"16:52:41.663 request:\n1 > GET http:\/\/reqres.in\/api\/users%3Fpage='1'\n1 > Accept-Encoding: gzip,deflate\n1 > Connection: Keep-Alive\n1 > Host: reqres.in\n1 > User-Agent: Apache-HttpClient\/4.5.12 (Java\/1.8.0_251)\n\n16:52:41.835 response time in milliseconds: 163.09\n1 < 301\n1 < CF-RAY: 5fb4abea7f4419f5-SIN\n1 < Cache-Control: max-age=3600\n1 < Connection: keep-alive\n1 < Date: Wed, 02 Dec 2020 11:22:41 GMT\n1 < Expires: Wed, 02 Dec 2020 12:22:41 GMT\n1 < Location: https:\/\/reqres.in\/api\/users%3Fpage='1'\n1 < NEL: {\"report_to\":\"cf-nel\",\"max_age\":604800}\n1 < Report-To: {\"endpoints\":[{\"url\":\"https:\\\/\\\/a.nel.cloudflare.com\\\/report?s=ufP3d1zTxSaQaEzG6n1HNJGrsxQ5rhRf%2BY7jF%2BFtbK%2FXaZtU%2FL5xE0ZPVoPm0hNIgnme4dJ4lSHBwT113u1MgsQMY6SqfKDHzOE%3D\"}],\"group\":\"cf-nel\",\"max_age\":604800}\n1 < Server: cloudflare\n1 < Transfer-Encoding: chunked\n1 < Vary: Accept-Encoding\n1 < cf-request-id: 06c4c9c68c000019f55f99b000000001\n\n16:52:41.835 request:\n2 > GET http:\/\/reqres.in\/api\/users%3Fpage='1'\n2 > Accept-Encoding: gzip,deflate\n2 > Connection: Keep-Alive\n2 > Host: reqres.in\n2 > User-Agent: Apache-HttpClient\/4.5.12 (Java\/1.8.0_251)\n\n16:52:42.569 response time in milliseconds: 733.95\n2 < 200\n2 < Access-Control-Allow-Origin: *\n2 < CF-Cache-Status: MISS\n2 < CF-RAY: 5fb4abec8c78dcce-SIN\n2 < Cache-Control: max-age=14400\n2 < Connection: keep-alive\n2 < Content-Type: application\/json; charset=utf-8\n2 < Date: Wed, 02 Dec 2020 11:22:42 GMT\n2 < Etag: W\/\"2c1-N6Rqerxquq2kgQhL51EiSg4x0R8\"\n2 < Expect-CT: max-age=604800, report-uri=\"https:\/\/report-uri.cloudflare.com\/cdn-cgi\/beacon\/expect-ct\"\n2 < NEL: {\"report_to\":\"cf-nel\",\"max_age\":604800}\n2 < Report-To: {\"endpoints\":[{\"url\":\"https:\\\/\\\/a.nel.cloudflare.com\\\/report?s=lJWtQirRza95pQOZovSh%2FNL%2FIsa8pHTm51YLCuiVbjDfS6vvIygldSsOwNjR8PNlXivUQ6bfmjQZfj3tl%2BNgKzsgzTD2%2Fv5ToEI%3D\"}],\"group\":\"cf-nel\",\"max_age\":604800}\n2 < Server: cloudflare\n2 < Set-Cookie: __cfduid=db9d9302f3dd14320e12fe358826a20e91606908162; expires=Fri, 01-Jan-21 11:22:42 GMT; path=\/; domain=.reqres.in; HttpOnly; SameSite=Lax; Secure\n2 < Transfer-Encoding: chunked\n2 < Vary: Accept-Encoding\n2 < Via: 1.1 vegur\n2 < X-Powered-By: Express\n2 < cf-request-id: 06c4c9c7d90000dcce96b82000000001\n{\"page\":1,\"per_page\":6,\"total\":12,\"total_pages\":2,\"data\":[{\"id\":1,\"name\":\"cerulean\",\"year\":2000,\"color\":\"#98B2D1\",\"pantone_value\":\"15-4020\"},{\"id\":2,\"name\":\"fuchsia rose\",\"year\":2001,\"color\":\"#C74375\",\"pantone_value\":\"17-2031\"},{\"id\":3,\"name\":\"true red\",\"year\":2002,\"color\":\"#BF1932\",\"pantone_value\":\"19-1664\"},{\"id\":4,\"name\":\"aqua sky\",\"year\":2003,\"color\":\"#7BC4C4\",\"pantone_value\":\"14-4811\"},{\"id\":5,\"name\":\"tigerlily\",\"year\":2004,\"color\":\"#E2583E\",\"pantone_value\":\"17-1456\"},{\"id\":6,\"name\":\"blue turquoise\",\"year\":2005,\"color\":\"#53B0AE\",\"pantone_value\":\"15-5217\"}],\"support\":{\"url\":\"https:\/\/reqres.in\/#support-heading\",\"text\":\"To keep ReqRes free, contributions towards server costs are appreciated!\"}}","line":9}},{"name":"status 200","result":{"duration":9900,"status":"passed"},"match":{"location":"karate","arguments":[]},"keyword":"Then","line":10},{"name":"response.page == 1","result":{"duration":18661500,"status":"passed"},"match":{"location":"karate","arguments":[]},"keyword":"And","line":11},{"name":"match response.page == '##'","result":{"duration":4997900,"status":"passed"},"match":{"location":"karate","arguments":[]},"keyword":"And","line":12}],"tags":[{"name":"@ddt","line":4}]},{"line":16,"name":"DDT Test Case","description":"","id":"ddt-test-case","type":"scenario","keyword":"Scenario Outline","steps":[{"name":"url \"http:\/\/reqres.in\"","result":{"duration":158300,"status":"passed"},"match":{"location":"karate","arguments":[]},"keyword":"Given","line":7,"doc_string":{"content_type":"","value":"16:52:42.632 skipping bootstrap configuration: could not find or read file: classpath:karate-config.js","line":7}},{"name":"path \"\/api\/users?page='2'\"","result":{"duration":1959200,"status":"passed"},"match":{"location":"karate","arguments":[]},"keyword":"And","line":8},{"name":"method GET","result":{"duration":688522000,"status":"passed"},"match":{"location":"karate","arguments":[]},"keyword":"When","line":9,"doc_string":{"content_type":"","value":"16:52:42.632 request:\n1 > GET http:\/\/reqres.in\/api\/users%3Fpage='2'\n1 > Accept-Encoding: gzip,deflate\n1 > Connection: Keep-Alive\n1 > Host: reqres.in\n1 > User-Agent: Apache-HttpClient\/4.5.12 (Java\/1.8.0_251)\n\n16:52:42.757 response time in milliseconds: 117.96\n1 < 301\n1 < CF-RAY: 5fb4abf04b40dcd2-SIN\n1 < Cache-Control: max-age=3600\n1 < Connection: keep-alive\n1 < Date: Wed, 02 Dec 2020 11:22:42 GMT\n1 < Expires: Wed, 02 Dec 2020 12:22:42 GMT\n1 < Location: https:\/\/reqres.in\/api\/users%3Fpage='2'\n1 < NEL: {\"report_to\":\"cf-nel\",\"max_age\":604800}\n1 < Report-To: {\"endpoints\":[{\"url\":\"https:\\\/\\\/a.nel.cloudflare.com\\\/report?s=qdJS07Q95Vh4qH%2FK3ulelKxB0Fpnu7VnB3W9X%2FTEilOebhdP%2F0jWK18GL%2FxQQ%2BATZ1UQu%2BoaiYH2LWsUVvkGf70A1R4bsHY%2FcIo%3D\"}],\"group\":\"cf-nel\",\"max_age\":604800}\n1 < Server: cloudflare\n1 < Transfer-Encoding: chunked\n1 < Vary: Accept-Encoding\n1 < cf-request-id: 06c4c9ca280000dcd22ab6f000000001\n\n16:52:42.757 request:\n2 > GET http:\/\/reqres.in\/api\/users%3Fpage='2'\n2 > Accept-Encoding: gzip,deflate\n2 > Connection: Keep-Alive\n2 > Host: reqres.in\n2 > User-Agent: Apache-HttpClient\/4.5.12 (Java\/1.8.0_251)\n\n16:52:43.319 response time in milliseconds: 564.98\n2 < 200\n2 < Access-Control-Allow-Origin: *\n2 < CF-Cache-Status: MISS\n2 < CF-RAY: 5fb4abf159601ab0-SIN\n2 < Cache-Control: max-age=14400\n2 < Connection: keep-alive\n2 < Content-Type: application\/json; charset=utf-8\n2 < Date: Wed, 02 Dec 2020 11:22:43 GMT\n2 < Etag: W\/\"2c1-N6Rqerxquq2kgQhL51EiSg4x0R8\"\n2 < Expect-CT: max-age=604800, report-uri=\"https:\/\/report-uri.cloudflare.com\/cdn-cgi\/beacon\/expect-ct\"\n2 < NEL: {\"report_to\":\"cf-nel\",\"max_age\":604800}\n2 < Report-To: {\"endpoints\":[{\"url\":\"https:\\\/\\\/a.nel.cloudflare.com\\\/report?s=WOVlEMSKCgSt1OOX4%2FjoGzgalLokX3AqGWrisK%2FFo4RzFDPvMqRG2ixXKDiccO4XqSQ9aDFrwnnPbYVDMDryxPkV%2FuxJa5VCqMo%3D\"}],\"group\":\"cf-nel\",\"max_age\":604800}\n2 < Server: cloudflare\n2 < Set-Cookie: __cfduid=d8fad73b6cd2d1a3ddfb4624a4b655e961606908162; expires=Fri, 01-Jan-21 11:22:42 GMT; path=\/; domain=.reqres.in; HttpOnly; SameSite=Lax; Secure\n2 < Transfer-Encoding: chunked\n2 < Vary: Accept-Encoding\n2 < Via: 1.1 vegur\n2 < X-Powered-By: Express\n2 < cf-request-id: 06c4c9cad600001ab0c92d5000000001\n{\"page\":1,\"per_page\":6,\"total\":12,\"total_pages\":2,\"data\":[{\"id\":1,\"name\":\"cerulean\",\"year\":2000,\"color\":\"#98B2D1\",\"pantone_value\":\"15-4020\"},{\"id\":2,\"name\":\"fuchsia rose\",\"year\":2001,\"color\":\"#C74375\",\"pantone_value\":\"17-2031\"},{\"id\":3,\"name\":\"true red\",\"year\":2002,\"color\":\"#BF1932\",\"pantone_value\":\"19-1664\"},{\"id\":4,\"name\":\"aqua sky\",\"year\":2003,\"color\":\"#7BC4C4\",\"pantone_value\":\"14-4811\"},{\"id\":5,\"name\":\"tigerlily\",\"year\":2004,\"color\":\"#E2583E\",\"pantone_value\":\"17-1456\"},{\"id\":6,\"name\":\"blue turquoise\",\"year\":2005,\"color\":\"#53B0AE\",\"pantone_value\":\"15-5217\"}],\"support\":{\"url\":\"https:\/\/reqres.in\/#support-heading\",\"text\":\"To keep ReqRes free, contributions towards server costs are appreciated!\"}}","line":9}},{"name":"status 200","result":{"duration":6800,"status":"passed"},"match":{"location":"karate","arguments":[]},"keyword":"Then","line":10},{"name":"response.page == 1","result":{"duration":603500,"status":"passed"},"match":{"location":"karate","arguments":[]},"keyword":"And","line":11},{"name":"match response.page == '##'","result":{"duration":334600,"status":"passed"},"match":{"location":"karate","arguments":[]},"keyword":"And","line":12}],"tags":[{"name":"@ddt","line":4}]},{"line":17,"name":"DDT Test Case","description":"","id":"ddt-test-case","type":"scenario","keyword":"Scenario Outline","steps":[{"name":"url \"http:\/\/reqres.in\"","result":{"duration":125700,"status":"passed"},"match":{"location":"karate","arguments":[]},"keyword":"Given","line":7,"doc_string":{"content_type":"","value":"16:52:43.335 skipping bootstrap configuration: could not find or read file: classpath:karate-config.js","line":7}},{"name":"path \"\/api\/users?page='3'\"","result":{"duration":2144400,"status":"passed"},"match":{"location":"karate","arguments":[]},"keyword":"And","line":8},{"name":"method GET","result":{"duration":693860900,"status":"passed"},"match":{"location":"karate","arguments":[]},"keyword":"When","line":9,"doc_string":{"content_type":"","value":"16:52:43.335 request:\n1 > GET http:\/\/reqres.in\/api\/users%3Fpage='3'\n1 > Accept-Encoding: gzip,deflate\n1 > Connection: Keep-Alive\n1 > Host: reqres.in\n1 > User-Agent: Apache-HttpClient\/4.5.12 (Java\/1.8.0_251)\n\n16:52:43.444 response time in milliseconds: 108.08\n1 < 301\n1 < CF-RAY: 5fb4abf49a311900-SIN\n1 < Cache-Control: max-age=3600\n1 < Connection: keep-alive\n1 < Date: Wed, 02 Dec 2020 11:22:43 GMT\n1 < Expires: Wed, 02 Dec 2020 12:22:43 GMT\n1 < Location: https:\/\/reqres.in\/api\/users%3Fpage='3'\n1 < NEL: {\"report_to\":\"cf-nel\",\"max_age\":604800}\n1 < Report-To: {\"endpoints\":[{\"url\":\"https:\\\/\\\/a.nel.cloudflare.com\\\/report?s=TJOLvHLVuVxmdgPiUhO6Vckye%2F7nB%2FMTvM9kbTDlyb1ouLKmEqCkj9rthgFUW%2Bn5lS8NkeF8so1F9ryicLwha%2BHygsLSQZmVcIk%3D\"}],\"group\":\"cf-nel\",\"max_age\":604800}\n1 < Server: cloudflare\n1 < Transfer-Encoding: chunked\n1 < Vary: Accept-Encoding\n1 < cf-request-id: 06c4c9cce200001900f6183000000001\n\n16:52:43.444 request:\n2 > GET http:\/\/reqres.in\/api\/users%3Fpage='3'\n2 > Accept-Encoding: gzip,deflate\n2 > Connection: Keep-Alive\n2 > Host: reqres.in\n2 > User-Agent: Apache-HttpClient\/4.5.12 (Java\/1.8.0_251)\n\n16:52:44.022 response time in milliseconds: 581.00\n2 < 200\n2 < Access-Control-Allow-Origin: *\n2 < CF-Cache-Status: MISS\n2 < CF-RAY: 5fb4abf5bc17d9b8-SIN\n2 < Cache-Control: max-age=14400\n2 < Connection: keep-alive\n2 < Content-Type: application\/json; charset=utf-8\n2 < Date: Wed, 02 Dec 2020 11:22:43 GMT\n2 < Etag: W\/\"2c1-N6Rqerxquq2kgQhL51EiSg4x0R8\"\n2 < Expect-CT: max-age=604800, report-uri=\"https:\/\/report-uri.cloudflare.com\/cdn-cgi\/beacon\/expect-ct\"\n2 < NEL: {\"report_to\":\"cf-nel\",\"max_age\":604800}\n2 < Report-To: {\"endpoints\":[{\"url\":\"https:\\\/\\\/a.nel.cloudflare.com\\\/report?s=l1rjwt9IBeL0PXkRHJMbk%2FWX79G%2Baun8LaMzc4sMSdJfKVZ4TqYdX9FP5GCj74keeeMLKakptLG0K1Z9ZV3%2FZ43WOh7vjCxkacs%3D\"}],\"group\":\"cf-nel\",\"max_age\":604800}\n2 < Server: cloudflare\n2 < Set-Cookie: __cfduid=d1f6da705ec1f9274d6d288918dd0b97c1606908163; expires=Fri, 01-Jan-21 11:22:43 GMT; path=\/; domain=.reqres.in; HttpOnly; SameSite=Lax; Secure\n2 < Transfer-Encoding: chunked\n2 < Vary: Accept-Encoding\n2 < Via: 1.1 vegur\n2 < X-Powered-By: Express\n2 < cf-request-id: 06c4c9cd920000d9b8039f3000000001\n{\"page\":1,\"per_page\":6,\"total\":12,\"total_pages\":2,\"data\":[{\"id\":1,\"name\":\"cerulean\",\"year\":2000,\"color\":\"#98B2D1\",\"pantone_value\":\"15-4020\"},{\"id\":2,\"name\":\"fuchsia rose\",\"year\":2001,\"color\":\"#C74375\",\"pantone_value\":\"17-2031\"},{\"id\":3,\"name\":\"true red\",\"year\":2002,\"color\":\"#BF1932\",\"pantone_value\":\"19-1664\"},{\"id\":4,\"name\":\"aqua sky\",\"year\":2003,\"color\":\"#7BC4C4\",\"pantone_value\":\"14-4811\"},{\"id\":5,\"name\":\"tigerlily\",\"year\":2004,\"color\":\"#E2583E\",\"pantone_value\":\"17-1456\"},{\"id\":6,\"name\":\"blue turquoise\",\"year\":2005,\"color\":\"#53B0AE\",\"pantone_value\":\"15-5217\"}],\"support\":{\"url\":\"https:\/\/reqres.in\/#support-heading\",\"text\":\"To keep ReqRes free, contributions towards server costs are appreciated!\"}}","line":9}},{"name":"status 200","result":{"duration":19800,"status":"passed"},"match":{"location":"karate","arguments":[]},"keyword":"Then","line":10},{"name":"response.page == 1","result":{"duration":1516600,"status":"passed"},"match":{"location":"karate","arguments":[]},"keyword":"And","line":11},{"name":"match response.page == '##'","result":{"duration":568700,"status":"passed"},"match":{"location":"karate","arguments":[]},"keyword":"And","line":12}],"tags":[{"name":"@ddt","line":4}]},{"line":18,"name":"DDT Test Case","description":"","id":"ddt-test-case","type":"scenario","keyword":"Scenario Outline","steps":[{"name":"url \"http:\/\/reqres.in\"","result":{"duration":156400,"status":"passed"},"match":{"location":"karate","arguments":[]},"keyword":"Given","line":7,"doc_string":{"content_type":"","value":"16:52:44.038 skipping bootstrap configuration: could not find or read file: classpath:karate-config.js","line":7}},{"name":"path \"\/api\/users?page='4'\"","result":{"duration":1889800,"status":"passed"},"match":{"location":"karate","arguments":[]},"keyword":"And","line":8},{"name":"method GET","result":{"duration":660358500,"status":"passed"},"match":{"location":"karate","arguments":[]},"keyword":"When","line":9,"doc_string":{"content_type":"","value":"16:52:44.038 request:\n1 > GET http:\/\/reqres.in\/api\/users%3Fpage='4'\n1 > Accept-Encoding: gzip,deflate\n1 > Connection: Keep-Alive\n1 > Host: reqres.in\n1 > User-Agent: Apache-HttpClient\/4.5.12 (Java\/1.8.0_251)\n\n16:52:44.148 response time in milliseconds: 107.99\n1 < 301\n1 < CF-RAY: 5fb4abf908121aa4-SIN\n1 < Cache-Control: max-age=3600\n1 < Connection: keep-alive\n1 < Date: Wed, 02 Dec 2020 11:22:44 GMT\n1 < Expires: Wed, 02 Dec 2020 12:22:44 GMT\n1 < Location: https:\/\/reqres.in\/api\/users%3Fpage='4'\n1 < NEL: {\"report_to\":\"cf-nel\",\"max_age\":604800}\n1 < Report-To: {\"endpoints\":[{\"url\":\"https:\\\/\\\/a.nel.cloudflare.com\\\/report?s=iCuHGNIUHJSNriZAz9lhhADEWp0to69oGC0y%2FMaB%2B6NMnjia%2B6A0yKohRi4bIjUCzjlPBnQf00jWStsX%2BWYpMnmhMBEcMI2%2BmXQ%3D\"}],\"group\":\"cf-nel\",\"max_age\":604800}\n1 < Server: cloudflare\n1 < Transfer-Encoding: chunked\n1 < Vary: Accept-Encoding\n1 < cf-request-id: 06c4c9cfa400001aa46e845000000001\n\n16:52:44.148 request:\n2 > GET http:\/\/reqres.in\/api\/users%3Fpage='4'\n2 > Accept-Encoding: gzip,deflate\n2 > Connection: Keep-Alive\n2 > Host: reqres.in\n2 > User-Agent: Apache-HttpClient\/4.5.12 (Java\/1.8.0_251)\n\n16:52:44.694 response time in milliseconds: 547.32\n2 < 200\n2 < Access-Control-Allow-Origin: *\n2 < CF-Cache-Status: MISS\n2 < CF-RAY: 5fb4abfa0f0f1a8c-SIN\n2 < Cache-Control: max-age=14400\n2 < Connection: keep-alive\n2 < Content-Type: application\/json; charset=utf-8\n2 < Date: Wed, 02 Dec 2020 11:22:44 GMT\n2 < Etag: W\/\"2c1-N6Rqerxquq2kgQhL51EiSg4x0R8\"\n2 < Expect-CT: max-age=604800, report-uri=\"https:\/\/report-uri.cloudflare.com\/cdn-cgi\/beacon\/expect-ct\"\n2 < NEL: {\"report_to\":\"cf-nel\",\"max_age\":604800}\n2 < Report-To: {\"endpoints\":[{\"url\":\"https:\\\/\\\/a.nel.cloudflare.com\\\/report?s=NrZDGtUz1WVVBnt6NmuWeK4ZkMbLd6TlAXBuWEqdsya1f0dQVvuK2WeJGMwb%2Ffjc7l7JB8be06M4k1krXeSIsDDPx21%2Fd6kL%2Fdg%3D\"}],\"group\":\"cf-nel\",\"max_age\":604800}\n2 < Server: cloudflare\n2 < Set-Cookie: __cfduid=d4919f41ac2b4920546770fd8d9f887f71606908164; expires=Fri, 01-Jan-21 11:22:44 GMT; path=\/; domain=.reqres.in; HttpOnly; SameSite=Lax; Secure\n2 < Transfer-Encoding: chunked\n2 < Vary: Accept-Encoding\n2 < Via: 1.1 vegur\n2 < X-Powered-By: Express\n2 < cf-request-id: 06c4c9d04600001a8c29907000000001\n{\"page\":1,\"per_page\":6,\"total\":12,\"total_pages\":2,\"data\":[{\"id\":1,\"name\":\"cerulean\",\"year\":2000,\"color\":\"#98B2D1\",\"pantone_value\":\"15-4020\"},{\"id\":2,\"name\":\"fuchsia rose\",\"year\":2001,\"color\":\"#C74375\",\"pantone_value\":\"17-2031\"},{\"id\":3,\"name\":\"true red\",\"year\":2002,\"color\":\"#BF1932\",\"pantone_value\":\"19-1664\"},{\"id\":4,\"name\":\"aqua sky\",\"year\":2003,\"color\":\"#7BC4C4\",\"pantone_value\":\"14-4811\"},{\"id\":5,\"name\":\"tigerlily\",\"year\":2004,\"color\":\"#E2583E\",\"pantone_value\":\"17-1456\"},{\"id\":6,\"name\":\"blue turquoise\",\"year\":2005,\"color\":\"#53B0AE\",\"pantone_value\":\"15-5217\"}],\"support\":{\"url\":\"https:\/\/reqres.in\/#support-heading\",\"text\":\"To keep ReqRes free, contributions towards server costs are appreciated!\"}}","line":9}},{"name":"status 200","result":{"duration":20300,"status":"passed"},"match":{"location":"karate","arguments":[]},"keyword":"Then","line":10},{"name":"response.page == 1","result":{"duration":738400,"status":"passed"},"match":{"location":"karate","arguments":[]},"keyword":"And","line":11},{"name":"match response.page == '##'","result":{"duration":203900,"status":"passed"},"match":{"location":"karate","arguments":[]},"keyword":"And","line":12}],"tags":[{"name":"@ddt","line":4}]},{"line":19,"name":"DDT Test Case","description":"","id":"ddt-test-case","type":"scenario","keyword":"Scenario Outline","steps":[{"name":"url \"http:\/\/reqres.in\"","result":{"duration":102000,"status":"passed"},"match":{"location":"karate","arguments":[]},"keyword":"Given","line":7,"doc_string":{"content_type":"","value":"16:52:44.710 skipping bootstrap configuration: could not find or read file: classpath:karate-config.js","line":7}},{"name":"path \"\/api\/users?page='5'\"","result":{"duration":1772200,"status":"passed"},"match":{"location":"karate","arguments":[]},"keyword":"And","line":8},{"name":"method GET","result":{"duration":676415500,"status":"passed"},"match":{"location":"karate","arguments":[]},"keyword":"When","line":9,"doc_string":{"content_type":"","value":"16:52:44.710 request:\n1 > GET http:\/\/reqres.in\/api\/users%3Fpage='5'\n1 > Accept-Encoding: gzip,deflate\n1 > Connection: Keep-Alive\n1 > Host: reqres.in\n1 > User-Agent: Apache-HttpClient\/4.5.12 (Java\/1.8.0_251)\n\n16:52:44.819 response time in milliseconds: 103.67\n1 < 301\n1 < CF-RAY: 5fb4abfd2ae01797-SIN\n1 < Cache-Control: max-age=3600\n1 < Connection: keep-alive\n1 < Date: Wed, 02 Dec 2020 11:22:44 GMT\n1 < Expires: Wed, 02 Dec 2020 12:22:44 GMT\n1 < Location: https:\/\/reqres.in\/api\/users%3Fpage='5'\n1 < NEL: {\"report_to\":\"cf-nel\",\"max_age\":604800}\n1 < Report-To: {\"endpoints\":[{\"url\":\"https:\\\/\\\/a.nel.cloudflare.com\\\/report?s=uoY9Kb627Yz1shnkddRlrDfWBDWpOSQ61qRa08QYZFrLPgHb7plkuCEFO%2BIdBE5gR54ukW3mgeMJy%2FlLfxO%2FAwXKK4I3D2901rs%3D\"}],\"group\":\"cf-nel\",\"max_age\":604800}\n1 < Server: cloudflare\n1 < Transfer-Encoding: chunked\n1 < Vary: Accept-Encoding\n1 < cf-request-id: 06c4c9d23e000017977637a000000001\n\n16:52:44.819 request:\n2 > GET http:\/\/reqres.in\/api\/users%3Fpage='5'\n2 > Accept-Encoding: gzip,deflate\n2 > Connection: Keep-Alive\n2 > Host: reqres.in\n2 > User-Agent: Apache-HttpClient\/4.5.12 (Java\/1.8.0_251)\n\n16:52:45.382 response time in milliseconds: 568.06\n2 < 200\n2 < Access-Control-Allow-Origin: *\n2 < CF-Cache-Status: MISS\n2 < CF-RAY: 5fb4abfe2922e25b-SIN\n2 < Cache-Control: max-age=14400\n2 < Connection: keep-alive\n2 < Content-Type: application\/json; charset=utf-8\n2 < Date: Wed, 02 Dec 2020 11:22:45 GMT\n2 < Etag: W\/\"2c1-N6Rqerxquq2kgQhL51EiSg4x0R8\"\n2 < Expect-CT: max-age=604800, report-uri=\"https:\/\/report-uri.cloudflare.com\/cdn-cgi\/beacon\/expect-ct\"\n2 < NEL: {\"report_to\":\"cf-nel\",\"max_age\":604800}\n2 < Report-To: {\"endpoints\":[{\"url\":\"https:\\\/\\\/a.nel.cloudflare.com\\\/report?s=JHXWtJYNL21O58IDhnas0LjxstRfcdDH4zdwQGDi5ukc6rEhsdk36Aff20YBKH%2FmJkXawCsmQ%2F2PIM%2BseabYiBTa43Wmn0s%2Fldc%3D\"}],\"group\":\"cf-nel\",\"max_age\":604800}\n2 < Server: cloudflare\n2 < Set-Cookie: __cfduid=d5852bd010a1ca8adceb2c2596872e21b1606908164; expires=Fri, 01-Jan-21 11:22:44 GMT; path=\/; domain=.reqres.in; HttpOnly; SameSite=Lax; Secure\n2 < Transfer-Encoding: chunked\n2 < Vary: Accept-Encoding\n2 < Via: 1.1 vegur\n2 < X-Powered-By: Express\n2 < cf-request-id: 06c4c9d2db0000e25bfd0fc000000001\n{\"page\":1,\"per_page\":6,\"total\":12,\"total_pages\":2,\"data\":[{\"id\":1,\"name\":\"cerulean\",\"year\":2000,\"color\":\"#98B2D1\",\"pantone_value\":\"15-4020\"},{\"id\":2,\"name\":\"fuchsia rose\",\"year\":2001,\"color\":\"#C74375\",\"pantone_value\":\"17-2031\"},{\"id\":3,\"name\":\"true red\",\"year\":2002,\"color\":\"#BF1932\",\"pantone_value\":\"19-1664\"},{\"id\":4,\"name\":\"aqua sky\",\"year\":2003,\"color\":\"#7BC4C4\",\"pantone_value\":\"14-4811\"},{\"id\":5,\"name\":\"tigerlily\",\"year\":2004,\"color\":\"#E2583E\",\"pantone_value\":\"17-1456\"},{\"id\":6,\"name\":\"blue turquoise\",\"year\":2005,\"color\":\"#53B0AE\",\"pantone_value\":\"15-5217\"}],\"support\":{\"url\":\"https:\/\/reqres.in\/#support-heading\",\"text\":\"To keep ReqRes free, contributions towards server costs are appreciated!\"}}","line":9}},{"name":"status 200","result":{"duration":7900,"status":"passed"},"match":{"location":"karate","arguments":[]},"keyword":"Then","line":10},{"name":"response.page == 1","result":{"duration":538800,"status":"passed"},"match":{"location":"karate","arguments":[]},"keyword":"And","line":11},{"name":"match response.page == '##'","result":{"duration":221700,"status":"passed"},"match":{"location":"karate","arguments":[]},"keyword":"And","line":12}],"tags":[{"name":"@ddt","line":4}]}],"name":"src\/test\/java\/FeatureFiles\/karate10.feature","description":"Karate Test Suite 10\nData driven testing","id":"karate-test-suite-10","keyword":"Feature","uri":"src\/test\/java\/FeatureFiles\/karate10.feature"}]