[{"line":1,"elements":[{"line":4,"name":"URL and PATH usage test case1","description":"","id":"url-and-path-usage-test-case1","type":"scenario","keyword":"Scenario","steps":[{"name":"url \"http:\/\/reqres.in\"","result":{"duration":1581900,"status":"passed"},"match":{"location":"karate","arguments":[]},"keyword":"Given","line":6,"doc_string":{"content_type":"","value":"19:04:37.366 from karate-config.js file","line":6}},{"name":"path \"\/api\/users?page=2\"","result":{"duration":1373400,"status":"passed"},"match":{"location":"karate","arguments":[]},"keyword":"And","line":7},{"name":"method GET","result":{"duration":113553600,"status":"passed"},"match":{"location":"karate","arguments":[]},"keyword":"When","line":8,"doc_string":{"content_type":"","value":"19:04:37.366 request:\n1 > GET http:\/\/reqres.in\/api\/users%3Fpage=2\n1 > Accept-Encoding: gzip,deflate\n1 > Connection: Keep-Alive\n1 > Host: reqres.in\n1 > User-Agent: Apache-HttpClient\/4.5.12 (Java\/1.8.0_251)\n\n19:04:37.413 response time in milliseconds: 48.55\n1 < 301\n1 < CF-RAY: 5fbdaa886a1131b2-BOM\n1 < Cache-Control: max-age=3600\n1 < Connection: keep-alive\n1 < Date: Thu, 03 Dec 2020 13:34:36 GMT\n1 < Expires: Thu, 03 Dec 2020 14:34:36 GMT\n1 < Location: https:\/\/reqres.in\/api\/users%3Fpage=2\n1 < NEL: {\"report_to\":\"cf-nel\",\"max_age\":604800}\n1 < Report-To: {\"endpoints\":[{\"url\":\"https:\\\/\\\/a.nel.cloudflare.com\\\/report?s=HxfH39jkwYF3NDDSlaz5P1gO0c2gjXe2dXg%2B60ShfbHae%2BlBa93S7zLOKcpKCTH%2F6kCQmXCWcG1YsBDLKmIdmNu4ghfoYkaYc7k%3D\"}],\"group\":\"cf-nel\",\"max_age\":604800}\n1 < Server: cloudflare\n1 < Transfer-Encoding: chunked\n1 < Vary: Accept-Encoding\n1 < cf-request-id: 06ca68e93e000031b2caa41000000001\n\n19:04:37.413 request:\n2 > GET http:\/\/reqres.in\/api\/users%3Fpage=2\n2 > Accept-Encoding: gzip,deflate\n2 > Connection: Keep-Alive\n2 > Host: reqres.in\n2 > User-Agent: Apache-HttpClient\/4.5.12 (Java\/1.8.0_251)\n\n19:04:37.475 response time in milliseconds: 62.62\n2 < 200\n2 < Access-Control-Allow-Origin: *\n2 < Age: 6910\n2 < CF-Cache-Status: HIT\n2 < CF-RAY: 5fbdaa88cbcb6991-BOM\n2 < Cache-Control: max-age=14400\n2 < Connection: keep-alive\n2 < Content-Type: application\/json; charset=utf-8\n2 < Date: Thu, 03 Dec 2020 13:34:36 GMT\n2 < Etag: W\/\"2c1-N6Rqerxquq2kgQhL51EiSg4x0R8\"\n2 < Expect-CT: max-age=604800, report-uri=\"https:\/\/report-uri.cloudflare.com\/cdn-cgi\/beacon\/expect-ct\"\n2 < NEL: {\"report_to\":\"cf-nel\",\"max_age\":604800}\n2 < Report-To: {\"endpoints\":[{\"url\":\"https:\\\/\\\/a.nel.cloudflare.com\\\/report?s=0UBWa7vL8x2eeHOHUIdv5whbdx46LxFnfZ%2Fn2JAhpQDZR1QCG8irslPGPHtF7qVMKSknlci6li4aGTo%2BV1i41dzJPeFiZSF4C78%3D\"}],\"group\":\"cf-nel\",\"max_age\":604800}\n2 < Server: cloudflare\n2 < Set-Cookie: __cfduid=d741aa85febf90ea797bce7b375b6632f1607002476; expires=Sat, 02-Jan-21 13:34:36 GMT; path=\/; domain=.reqres.in; HttpOnly; SameSite=Lax; Secure\n2 < Transfer-Encoding: chunked\n2 < Vary: Accept-Encoding\n2 < Via: 1.1 vegur\n2 < X-Powered-By: Express\n2 < cf-request-id: 06ca68e97c0000699100a30000000001\n{\"page\":1,\"per_page\":6,\"total\":12,\"total_pages\":2,\"data\":[{\"id\":1,\"name\":\"cerulean\",\"year\":2000,\"color\":\"#98B2D1\",\"pantone_value\":\"15-4020\"},{\"id\":2,\"name\":\"fuchsia rose\",\"year\":2001,\"color\":\"#C74375\",\"pantone_value\":\"17-2031\"},{\"id\":3,\"name\":\"true red\",\"year\":2002,\"color\":\"#BF1932\",\"pantone_value\":\"19-1664\"},{\"id\":4,\"name\":\"aqua sky\",\"year\":2003,\"color\":\"#7BC4C4\",\"pantone_value\":\"14-4811\"},{\"id\":5,\"name\":\"tigerlily\",\"year\":2004,\"color\":\"#E2583E\",\"pantone_value\":\"17-1456\"},{\"id\":6,\"name\":\"blue turquoise\",\"year\":2005,\"color\":\"#53B0AE\",\"pantone_value\":\"15-5217\"}],\"support\":{\"url\":\"https:\/\/reqres.in\/#support-heading\",\"text\":\"To keep ReqRes free, contributions towards server costs are appreciated!\"}}","line":8}},{"name":"status 200","result":{"duration":7000,"status":"passed"},"match":{"location":"karate","arguments":[]},"keyword":"Then","line":9},{"name":"response.page == 1","result":{"duration":2426100,"status":"passed"},"match":{"location":"karate","arguments":[]},"keyword":"And","line":10},{"name":"match response.page == '##'","result":{"duration":1518400,"status":"passed"},"match":{"location":"karate","arguments":[]},"keyword":"And","line":11,"doc_string":{"content_type":"","value":"19:04:37.475 after scenario inside config","line":11}}]},{"line":13,"name":"URL and PATH usage test case2","description":"","id":"url-and-path-usage-test-case2","type":"scenario","keyword":"Scenario","steps":[{"name":"url \"http:\/\/reqres.in\"","result":{"duration":97800,"status":"passed"},"match":{"location":"karate","arguments":[]},"keyword":"Given","line":15,"doc_string":{"content_type":"","value":"19:04:37.491 from karate-config.js file","line":15}},{"name":"path \"\/api\/users?page=2\"","result":{"duration":70500,"status":"passed"},"match":{"location":"karate","arguments":[]},"keyword":"And","line":16},{"name":"param page = 2","result":{"duration":1616700,"status":"passed"},"match":{"location":"karate","arguments":[]},"keyword":"And","line":17},{"name":"method GET","result":{"duration":125156000,"status":"passed"},"match":{"location":"karate","arguments":[]},"keyword":"When","line":18,"doc_string":{"content_type":"","value":"19:04:37.491 request:\n1 > GET http:\/\/reqres.in\/api\/users%3Fpage=2?page=2\n1 > Accept-Encoding: gzip,deflate\n1 > Connection: Keep-Alive\n1 > Host: reqres.in\n1 > User-Agent: Apache-HttpClient\/4.5.12 (Java\/1.8.0_251)\n\n19:04:37.538 response time in milliseconds: 47.46\n1 < 301\n1 < CF-RAY: 5fbdaa892cc42e28-BOM\n1 < Cache-Control: max-age=3600\n1 < Connection: keep-alive\n1 < Date: Thu, 03 Dec 2020 13:34:36 GMT\n1 < Expires: Thu, 03 Dec 2020 14:34:36 GMT\n1 < Location: https:\/\/reqres.in\/api\/users%3Fpage=2?page=2\n1 < NEL: {\"report_to\":\"cf-nel\",\"max_age\":604800}\n1 < Report-To: {\"endpoints\":[{\"url\":\"https:\\\/\\\/a.nel.cloudflare.com\\\/report?s=VMM3W5Tkvopm6D15yFLI2TUK1KJ7jNYDss6Wvx4sYL5jsLaUXNGd9SzDeQttrbd1hiHkqZ65FzBnRfAQolZSXACK7uUS8MgMR8g%3D\"}],\"group\":\"cf-nel\",\"max_age\":604800}\n1 < Server: cloudflare\n1 < Transfer-Encoding: chunked\n1 < Vary: Accept-Encoding\n1 < cf-request-id: 06ca68e9b800002e2840102000000001\n\n19:04:37.538 request:\n2 > GET http:\/\/reqres.in\/api\/users%3Fpage=2?page=2\n2 > Accept-Encoding: gzip,deflate\n2 > Connection: Keep-Alive\n2 > Host: reqres.in\n2 > User-Agent: Apache-HttpClient\/4.5.12 (Java\/1.8.0_251)\n\n19:04:37.616 response time in milliseconds: 75.02\n2 < 200\n2 < Access-Control-Allow-Origin: *\n2 < Age: 837\n2 < CF-Cache-Status: HIT\n2 < CF-RAY: 5fbdaa899d2d31dc-BOM\n2 < Cache-Control: max-age=14400\n2 < Connection: keep-alive\n2 < Content-Type: application\/json; charset=utf-8\n2 < Date: Thu, 03 Dec 2020 13:34:37 GMT\n2 < Etag: W\/\"2c3-xEr0SjJUDYJR0qVFNJByQ5ZcdPc\"\n2 < Expect-CT: max-age=604800, report-uri=\"https:\/\/report-uri.cloudflare.com\/cdn-cgi\/beacon\/expect-ct\"\n2 < NEL: {\"report_to\":\"cf-nel\",\"max_age\":604800}\n2 < Report-To: {\"endpoints\":[{\"url\":\"https:\\\/\\\/a.nel.cloudflare.com\\\/report?s=eSVyp7DEtwqxB1xgIt1vyF0hoMOPHzbDQ6J51ayLAMzXPbRpxsHRxFRwVk0tQ4PYATmWsHuBlqzWzUzoZJM5U1YmocaAmJW4wSw%3D\"}],\"group\":\"cf-nel\",\"max_age\":604800}\n2 < Server: cloudflare\n2 < Set-Cookie: __cfduid=d1b4adc301c9f4212af649fe571baff0d1607002477; expires=Sat, 02-Jan-21 13:34:37 GMT; path=\/; domain=.reqres.in; HttpOnly; SameSite=Lax; Secure\n2 < Transfer-Encoding: chunked\n2 < Vary: Accept-Encoding\n2 < Via: 1.1 vegur\n2 < X-Powered-By: Express\n2 < cf-request-id: 06ca68e9fe000031dc600e0000000001\n{\"page\":2,\"per_page\":6,\"total\":12,\"total_pages\":2,\"data\":[{\"id\":7,\"name\":\"sand dollar\",\"year\":2006,\"color\":\"#DECDBE\",\"pantone_value\":\"13-1106\"},{\"id\":8,\"name\":\"chili pepper\",\"year\":2007,\"color\":\"#9B1B30\",\"pantone_value\":\"19-1557\"},{\"id\":9,\"name\":\"blue iris\",\"year\":2008,\"color\":\"#5A5B9F\",\"pantone_value\":\"18-3943\"},{\"id\":10,\"name\":\"mimosa\",\"year\":2009,\"color\":\"#F0C05A\",\"pantone_value\":\"14-0848\"},{\"id\":11,\"name\":\"turquoise\",\"year\":2010,\"color\":\"#45B5AA\",\"pantone_value\":\"15-5519\"},{\"id\":12,\"name\":\"honeysuckle\",\"year\":2011,\"color\":\"#D94F70\",\"pantone_value\":\"18-2120\"}],\"support\":{\"url\":\"https:\/\/reqres.in\/#support-heading\",\"text\":\"To keep ReqRes free, contributions towards server costs are appreciated!\"}}","line":18}},{"name":"status 200","result":{"duration":7000,"status":"passed"},"match":{"location":"karate","arguments":[]},"keyword":"Then","line":19},{"name":"response.page == 2","result":{"duration":2305400,"status":"passed"},"match":{"location":"karate","arguments":[]},"keyword":"And","line":20},{"name":"match response.page == '##'","result":{"duration":291400,"status":"passed"},"match":{"location":"karate","arguments":[]},"keyword":"And","line":21,"doc_string":{"content_type":"","value":"19:04:37.616 after scenario inside config","line":21}}]}],"name":"FeatureFiles\/karate09.feature","description":"Karate Test Suite 09\nUsing URL and PATH","id":"karate-test-suite-09","keyword":"Feature","uri":"FeatureFiles\/karate09.feature"}]