[{"line":1,"elements":[{"line":15,"name":"DDT Test Case","description":"","id":"ddt-test-case","type":"scenario","keyword":"Scenario Outline","steps":[{"name":"url \"http:\/\/reqres.in\"","result":{"duration":103900,"status":"passed"},"match":{"location":"karate","arguments":[]},"keyword":"Given","line":7,"doc_string":{"content_type":"","value":"19:04:37.632 from karate-config.js file","line":7}},{"name":"path \"\/api\/users?page='1'\"","result":{"duration":1462700,"status":"passed"},"match":{"location":"karate","arguments":[]},"keyword":"And","line":8},{"name":"method GET","result":{"duration":165085600,"status":"passed"},"match":{"location":"karate","arguments":[]},"keyword":"When","line":9,"doc_string":{"content_type":"","value":"19:04:37.632 request:\n1 > GET http:\/\/reqres.in\/api\/users%3Fpage='1'\n1 > Accept-Encoding: gzip,deflate\n1 > Connection: Keep-Alive\n1 > Host: reqres.in\n1 > User-Agent: Apache-HttpClient\/4.5.12 (Java\/1.8.0_251)\n\n19:04:37.710 response time in milliseconds: 81.64\n1 < 301\n1 < CF-RAY: 5fbdaa8a19726989-BOM\n1 < Cache-Control: max-age=3600\n1 < Connection: keep-alive\n1 < Date: Thu, 03 Dec 2020 13:34:37 GMT\n1 < Expires: Thu, 03 Dec 2020 14:34:37 GMT\n1 < Location: https:\/\/reqres.in\/api\/users%3Fpage='1'\n1 < NEL: {\"report_to\":\"cf-nel\",\"max_age\":604800}\n1 < Report-To: {\"endpoints\":[{\"url\":\"https:\\\/\\\/a.nel.cloudflare.com\\\/report?s=kPlxHKE9B6TfMuuGbhQidq7BMbhIMHvfhbMm2Ys2NlcXY43uVMqLPrE%2FbbKuXHswnQSvsx%2FBuPXaNxI870lMhyifQMwfolXGyew%3D\"}],\"group\":\"cf-nel\",\"max_age\":604800}\n1 < Server: cloudflare\n1 < Transfer-Encoding: chunked\n1 < Vary: Accept-Encoding\n1 < cf-request-id: 06ca68ea4a0000698995006000000001\n\n19:04:37.710 request:\n2 > GET http:\/\/reqres.in\/api\/users%3Fpage='1'\n2 > Accept-Encoding: gzip,deflate\n2 > Connection: Keep-Alive\n2 > Host: reqres.in\n2 > User-Agent: Apache-HttpClient\/4.5.12 (Java\/1.8.0_251)\n\n19:04:37.803 response time in milliseconds: 80.77\n2 < 200\n2 < Access-Control-Allow-Origin: *\n2 < Age: 836\n2 < CF-Cache-Status: HIT\n2 < CF-RAY: 5fbdaa8ac91b2e41-BOM\n2 < Cache-Control: max-age=14400\n2 < Connection: keep-alive\n2 < Content-Type: application\/json; charset=utf-8\n2 < Date: Thu, 03 Dec 2020 13:34:37 GMT\n2 < Etag: W\/\"2c1-N6Rqerxquq2kgQhL51EiSg4x0R8\"\n2 < Expect-CT: max-age=604800, report-uri=\"https:\/\/report-uri.cloudflare.com\/cdn-cgi\/beacon\/expect-ct\"\n2 < NEL: {\"report_to\":\"cf-nel\",\"max_age\":604800}\n2 < Report-To: {\"endpoints\":[{\"url\":\"https:\\\/\\\/a.nel.cloudflare.com\\\/report?s=hkj2wHXQAUovrM4PvnWS2Ig%2BIiROfmjnoLP%2FkDGnM3nW6RdsJ7NuF0lYnFmZsdlIdjRXAcNA0iXb1nsQ3OxjY%2FmI%2BUmIaCmo0vk%3D\"}],\"group\":\"cf-nel\",\"max_age\":604800}\n2 < Server: cloudflare\n2 < Set-Cookie: __cfduid=d5035ee01fae8fb0d86d3fe321c8325351607002477; expires=Sat, 02-Jan-21 13:34:37 GMT; path=\/; domain=.reqres.in; HttpOnly; SameSite=Lax; Secure\n2 < Transfer-Encoding: chunked\n2 < Vary: Accept-Encoding\n2 < Via: 1.1 vegur\n2 < X-Powered-By: Express\n2 < cf-request-id: 06ca68eabd00002e41738a6000000001\n{\"page\":1,\"per_page\":6,\"total\":12,\"total_pages\":2,\"data\":[{\"id\":1,\"name\":\"cerulean\",\"year\":2000,\"color\":\"#98B2D1\",\"pantone_value\":\"15-4020\"},{\"id\":2,\"name\":\"fuchsia rose\",\"year\":2001,\"color\":\"#C74375\",\"pantone_value\":\"17-2031\"},{\"id\":3,\"name\":\"true red\",\"year\":2002,\"color\":\"#BF1932\",\"pantone_value\":\"19-1664\"},{\"id\":4,\"name\":\"aqua sky\",\"year\":2003,\"color\":\"#7BC4C4\",\"pantone_value\":\"14-4811\"},{\"id\":5,\"name\":\"tigerlily\",\"year\":2004,\"color\":\"#E2583E\",\"pantone_value\":\"17-1456\"},{\"id\":6,\"name\":\"blue turquoise\",\"year\":2005,\"color\":\"#53B0AE\",\"pantone_value\":\"15-5217\"}],\"support\":{\"url\":\"https:\/\/reqres.in\/#support-heading\",\"text\":\"To keep ReqRes free, contributions towards server costs are appreciated!\"}}","line":9}},{"name":"status 200","result":{"duration":7800,"status":"passed"},"match":{"location":"karate","arguments":[]},"keyword":"Then","line":10},{"name":"response.page == 1","result":{"duration":370800,"status":"passed"},"match":{"location":"karate","arguments":[]},"keyword":"And","line":11},{"name":"match response.page == '##'","result":{"duration":189100,"status":"passed"},"match":{"location":"karate","arguments":[]},"keyword":"And","line":12,"doc_string":{"content_type":"","value":"19:04:37.803 after scenario inside config","line":12}}],"tags":[{"name":"@ddt","line":4}]},{"line":16,"name":"DDT Test Case","description":"","id":"ddt-test-case","type":"scenario","keyword":"Scenario Outline","steps":[{"name":"url \"http:\/\/reqres.in\"","result":{"duration":170700,"status":"passed"},"match":{"location":"karate","arguments":[]},"keyword":"Given","line":7,"doc_string":{"content_type":"","value":"19:04:37.803 from karate-config.js file","line":7}},{"name":"path \"\/api\/users?page='2'\"","result":{"duration":1518500,"status":"passed"},"match":{"location":"karate","arguments":[]},"keyword":"And","line":8},{"name":"method GET","result":{"duration":123914600,"status":"passed"},"match":{"location":"karate","arguments":[]},"keyword":"When","line":9,"doc_string":{"content_type":"","value":"19:04:37.803 request:\n1 > GET http:\/\/reqres.in\/api\/users%3Fpage='2'\n1 > Accept-Encoding: gzip,deflate\n1 > Connection: Keep-Alive\n1 > Host: reqres.in\n1 > User-Agent: Apache-HttpClient\/4.5.12 (Java\/1.8.0_251)\n\n19:04:37.850 response time in milliseconds: 42.01\n1 < 301\n1 < CF-RAY: 5fbdaa8b1c0331ac-BOM\n1 < Cache-Control: max-age=3600\n1 < Connection: keep-alive\n1 < Date: Thu, 03 Dec 2020 13:34:37 GMT\n1 < Expires: Thu, 03 Dec 2020 14:34:37 GMT\n1 < Location: https:\/\/reqres.in\/api\/users%3Fpage='2'\n1 < NEL: {\"report_to\":\"cf-nel\",\"max_age\":604800}\n1 < Report-To: {\"endpoints\":[{\"url\":\"https:\\\/\\\/a.nel.cloudflare.com\\\/report?s=2Vqu%2BjmMwQ%2BzFGa40dxuzVS6P8eIXN3OHmGBZRgMFHbzT8LQbe3jxoWAgA0Hznia8eM%2BQr3z74KTSBwLDE%2BZAySBbkauAoM5L9A%3D\"}],\"group\":\"cf-nel\",\"max_age\":604800}\n1 < Server: cloudflare\n1 < Transfer-Encoding: chunked\n1 < Vary: Accept-Encoding\n1 < cf-request-id: 06ca68eaee000031acea930000000001\n\n19:04:37.850 request:\n2 > GET http:\/\/reqres.in\/api\/users%3Fpage='2'\n2 > Accept-Encoding: gzip,deflate\n2 > Connection: Keep-Alive\n2 > Host: reqres.in\n2 > User-Agent: Apache-HttpClient\/4.5.12 (Java\/1.8.0_251)\n\n19:04:37.928 response time in milliseconds: 78.10\n2 < 200\n2 < Access-Control-Allow-Origin: *\n2 < Age: 836\n2 < CF-Cache-Status: HIT\n2 < CF-RAY: 5fbdaa8b9a3531f9-BOM\n2 < Cache-Control: max-age=14400\n2 < Connection: keep-alive\n2 < Content-Type: application\/json; charset=utf-8\n2 < Date: Thu, 03 Dec 2020 13:34:37 GMT\n2 < Etag: W\/\"2c1-N6Rqerxquq2kgQhL51EiSg4x0R8\"\n2 < Expect-CT: max-age=604800, report-uri=\"https:\/\/report-uri.cloudflare.com\/cdn-cgi\/beacon\/expect-ct\"\n2 < NEL: {\"report_to\":\"cf-nel\",\"max_age\":604800}\n2 < Report-To: {\"endpoints\":[{\"url\":\"https:\\\/\\\/a.nel.cloudflare.com\\\/report?s=zyrEyTsEfitOrRG8Z40fnq60MSOwVLAtydWwC7ArIUR0Plw3aMGBr85%2BfsAHuy2vDjaUA8ndMvkYjkn7dfLxy0YJECQ0zPg4NiI%3D\"}],\"group\":\"cf-nel\",\"max_age\":604800}\n2 < Server: cloudflare\n2 < Set-Cookie: __cfduid=d69ca0942c5056622114878c8acbd0f1d1607002477; expires=Sat, 02-Jan-21 13:34:37 GMT; path=\/; domain=.reqres.in; HttpOnly; SameSite=Lax; Secure\n2 < Transfer-Encoding: chunked\n2 < Vary: Accept-Encoding\n2 < Via: 1.1 vegur\n2 < X-Powered-By: Express\n2 < cf-request-id: 06ca68eb3c000031f970876000000001\n{\"page\":1,\"per_page\":6,\"total\":12,\"total_pages\":2,\"data\":[{\"id\":1,\"name\":\"cerulean\",\"year\":2000,\"color\":\"#98B2D1\",\"pantone_value\":\"15-4020\"},{\"id\":2,\"name\":\"fuchsia rose\",\"year\":2001,\"color\":\"#C74375\",\"pantone_value\":\"17-2031\"},{\"id\":3,\"name\":\"true red\",\"year\":2002,\"color\":\"#BF1932\",\"pantone_value\":\"19-1664\"},{\"id\":4,\"name\":\"aqua sky\",\"year\":2003,\"color\":\"#7BC4C4\",\"pantone_value\":\"14-4811\"},{\"id\":5,\"name\":\"tigerlily\",\"year\":2004,\"color\":\"#E2583E\",\"pantone_value\":\"17-1456\"},{\"id\":6,\"name\":\"blue turquoise\",\"year\":2005,\"color\":\"#53B0AE\",\"pantone_value\":\"15-5217\"}],\"support\":{\"url\":\"https:\/\/reqres.in\/#support-heading\",\"text\":\"To keep ReqRes free, contributions towards server costs are appreciated!\"}}","line":9}},{"name":"status 200","result":{"duration":17800,"status":"passed"},"match":{"location":"karate","arguments":[]},"keyword":"Then","line":10},{"name":"response.page == 1","result":{"duration":418000,"status":"passed"},"match":{"location":"karate","arguments":[]},"keyword":"And","line":11},{"name":"match response.page == '##'","result":{"duration":190600,"status":"passed"},"match":{"location":"karate","arguments":[]},"keyword":"And","line":12,"doc_string":{"content_type":"","value":"19:04:37.928 after scenario inside config","line":12}}],"tags":[{"name":"@ddt","line":4}]},{"line":17,"name":"DDT Test Case","description":"","id":"ddt-test-case","type":"scenario","keyword":"Scenario Outline","steps":[{"name":"url \"http:\/\/reqres.in\"","result":{"duration":88500,"status":"passed"},"match":{"location":"karate","arguments":[]},"keyword":"Given","line":7,"doc_string":{"content_type":"","value":"19:04:37.928 from karate-config.js file","line":7}},{"name":"path \"\/api\/users?page='3'\"","result":{"duration":1234000,"status":"passed"},"match":{"location":"karate","arguments":[]},"keyword":"And","line":8},{"name":"method GET","result":{"duration":111334700,"status":"passed"},"match":{"location":"karate","arguments":[]},"keyword":"When","line":9,"doc_string":{"content_type":"","value":"19:04:37.928 request:\n1 > GET http:\/\/reqres.in\/api\/users%3Fpage='3'\n1 > Accept-Encoding: gzip,deflate\n1 > Connection: Keep-Alive\n1 > Host: reqres.in\n1 > User-Agent: Apache-HttpClient\/4.5.12 (Java\/1.8.0_251)\n\n19:04:37.975 response time in milliseconds: 44.66\n1 < 301\n1 < CF-RAY: 5fbdaa8beef72e2f-BOM\n1 < Cache-Control: max-age=3600\n1 < Connection: keep-alive\n1 < Date: Thu, 03 Dec 2020 13:34:37 GMT\n1 < Expires: Thu, 03 Dec 2020 14:34:37 GMT\n1 < Location: https:\/\/reqres.in\/api\/users%3Fpage='3'\n1 < NEL: {\"report_to\":\"cf-nel\",\"max_age\":604800}\n1 < Report-To: {\"endpoints\":[{\"url\":\"https:\\\/\\\/a.nel.cloudflare.com\\\/report?s=J%2Bp4BGVCOecbc7LKy5t1aR2sN5BG1fTdhmC4TRkzYj1ZPk%2F9SwdBl%2BtmgvFU2XW1FzTVosP99ineN1P5bjc21BdeWGtWA%2B119wE%3D\"}],\"group\":\"cf-nel\",\"max_age\":604800}\n1 < Server: cloudflare\n1 < Transfer-Encoding: chunked\n1 < Vary: Accept-Encoding\n1 < cf-request-id: 06ca68eb7300002e2fed2fe000000001\n\n19:04:37.975 request:\n2 > GET http:\/\/reqres.in\/api\/users%3Fpage='3'\n2 > Accept-Encoding: gzip,deflate\n2 > Connection: Keep-Alive\n2 > Host: reqres.in\n2 > User-Agent: Apache-HttpClient\/4.5.12 (Java\/1.8.0_251)\n\n19:04:38.038 response time in milliseconds: 63.89\n2 < 200\n2 < Access-Control-Allow-Origin: *\n2 < Age: 835\n2 < CF-Cache-Status: HIT\n2 < CF-RAY: 5fbdaa8c4cdb2e31-BOM\n2 < Cache-Control: max-age=14400\n2 < Connection: keep-alive\n2 < Content-Type: application\/json; charset=utf-8\n2 < Date: Thu, 03 Dec 2020 13:34:37 GMT\n2 < Etag: W\/\"2c1-N6Rqerxquq2kgQhL51EiSg4x0R8\"\n2 < Expect-CT: max-age=604800, report-uri=\"https:\/\/report-uri.cloudflare.com\/cdn-cgi\/beacon\/expect-ct\"\n2 < NEL: {\"report_to\":\"cf-nel\",\"max_age\":604800}\n2 < Report-To: {\"endpoints\":[{\"url\":\"https:\\\/\\\/a.nel.cloudflare.com\\\/report?s=3gSw1W2Cx7P4sPnT5Q8%2BoCZPbyY46c5%2BW6YtXWGV2Vz43ZFSlrLE7pOT4O730%2FJsUAJeSaHRKlkz7RAOsEL1D14AYTkQS7dgNfE%3D\"}],\"group\":\"cf-nel\",\"max_age\":604800}\n2 < Server: cloudflare\n2 < Set-Cookie: __cfduid=dbf02a64885a8d0789fca5327c243e8c21607002477; expires=Sat, 02-Jan-21 13:34:37 GMT; path=\/; domain=.reqres.in; HttpOnly; SameSite=Lax; Secure\n2 < Transfer-Encoding: chunked\n2 < Vary: Accept-Encoding\n2 < Via: 1.1 vegur\n2 < X-Powered-By: Express\n2 < cf-request-id: 06ca68ebb300002e3178b30000000001\n{\"page\":1,\"per_page\":6,\"total\":12,\"total_pages\":2,\"data\":[{\"id\":1,\"name\":\"cerulean\",\"year\":2000,\"color\":\"#98B2D1\",\"pantone_value\":\"15-4020\"},{\"id\":2,\"name\":\"fuchsia rose\",\"year\":2001,\"color\":\"#C74375\",\"pantone_value\":\"17-2031\"},{\"id\":3,\"name\":\"true red\",\"year\":2002,\"color\":\"#BF1932\",\"pantone_value\":\"19-1664\"},{\"id\":4,\"name\":\"aqua sky\",\"year\":2003,\"color\":\"#7BC4C4\",\"pantone_value\":\"14-4811\"},{\"id\":5,\"name\":\"tigerlily\",\"year\":2004,\"color\":\"#E2583E\",\"pantone_value\":\"17-1456\"},{\"id\":6,\"name\":\"blue turquoise\",\"year\":2005,\"color\":\"#53B0AE\",\"pantone_value\":\"15-5217\"}],\"support\":{\"url\":\"https:\/\/reqres.in\/#support-heading\",\"text\":\"To keep ReqRes free, contributions towards server costs are appreciated!\"}}","line":9}},{"name":"status 200","result":{"duration":10800,"status":"passed"},"match":{"location":"karate","arguments":[]},"keyword":"Then","line":10},{"name":"response.page == 1","result":{"duration":614700,"status":"passed"},"match":{"location":"karate","arguments":[]},"keyword":"And","line":11},{"name":"match response.page == '##'","result":{"duration":291000,"status":"passed"},"match":{"location":"karate","arguments":[]},"keyword":"And","line":12,"doc_string":{"content_type":"","value":"19:04:38.054 after scenario inside config","line":12}}],"tags":[{"name":"@ddt","line":4}]},{"line":18,"name":"DDT Test Case","description":"","id":"ddt-test-case","type":"scenario","keyword":"Scenario Outline","steps":[{"name":"url \"http:\/\/reqres.in\"","result":{"duration":97700,"status":"passed"},"match":{"location":"karate","arguments":[]},"keyword":"Given","line":7,"doc_string":{"content_type":"","value":"19:04:38.054 from karate-config.js file","line":7}},{"name":"path \"\/api\/users?page='4'\"","result":{"duration":1685200,"status":"passed"},"match":{"location":"karate","arguments":[]},"keyword":"And","line":8},{"name":"method GET","result":{"duration":135531600,"status":"passed"},"match":{"location":"karate","arguments":[]},"keyword":"When","line":9,"doc_string":{"content_type":"","value":"19:04:38.054 request:\n1 > GET http:\/\/reqres.in\/api\/users%3Fpage='4'\n1 > Accept-Encoding: gzip,deflate\n1 > Connection: Keep-Alive\n1 > Host: reqres.in\n1 > User-Agent: Apache-HttpClient\/4.5.12 (Java\/1.8.0_251)\n\n19:04:38.118 response time in milliseconds: 55.94\n1 < 301\n1 < CF-RAY: 5fbdaa8cae8e31ed-BOM\n1 < Cache-Control: max-age=3600\n1 < Connection: keep-alive\n1 < Date: Thu, 03 Dec 2020 13:34:37 GMT\n1 < Expires: Thu, 03 Dec 2020 14:34:37 GMT\n1 < Location: https:\/\/reqres.in\/api\/users%3Fpage='4'\n1 < NEL: {\"report_to\":\"cf-nel\",\"max_age\":604800}\n1 < Report-To: {\"endpoints\":[{\"url\":\"https:\\\/\\\/a.nel.cloudflare.com\\\/report?s=Pi9vH9shPZP%2B4XjNZsNw%2FCffehUF6ommrSbYprXnXW0SNDWl7UUJ9JlWHxIcAons1O2ntl7%2Fyc2yVGK%2Fuorsvprh0%2BNVPmLPpH8%3D\"}],\"group\":\"cf-nel\",\"max_age\":604800}\n1 < Server: cloudflare\n1 < Transfer-Encoding: chunked\n1 < Vary: Accept-Encoding\n1 < cf-request-id: 06ca68ebe8000031ed1a1a2000000001\n\n19:04:38.118 request:\n2 > GET http:\/\/reqres.in\/api\/users%3Fpage='4'\n2 > Accept-Encoding: gzip,deflate\n2 > Connection: Keep-Alive\n2 > Host: reqres.in\n2 > User-Agent: Apache-HttpClient\/4.5.12 (Java\/1.8.0_251)\n\n19:04:38.195 response time in milliseconds: 75.19\n2 < 200\n2 < Access-Control-Allow-Origin: *\n2 < Age: 835\n2 < CF-Cache-Status: HIT\n2 < CF-RAY: 5fbdaa8d38f531e8-BOM\n2 < Cache-Control: max-age=14400\n2 < Connection: keep-alive\n2 < Content-Type: application\/json; charset=utf-8\n2 < Date: Thu, 03 Dec 2020 13:34:37 GMT\n2 < Etag: W\/\"2c1-N6Rqerxquq2kgQhL51EiSg4x0R8\"\n2 < Expect-CT: max-age=604800, report-uri=\"https:\/\/report-uri.cloudflare.com\/cdn-cgi\/beacon\/expect-ct\"\n2 < NEL: {\"report_to\":\"cf-nel\",\"max_age\":604800}\n2 < Report-To: {\"endpoints\":[{\"url\":\"https:\\\/\\\/a.nel.cloudflare.com\\\/report?s=7uVIGjjRfIeyenYq%2B6CzdX1%2BrJuNgls9mYUJqjZWG703mTJlBXldLUB3P%2BwIZ2jpzXaagNSngSMNNLCfNpm2jH0NszBFKl%2BnX%2B8%3D\"}],\"group\":\"cf-nel\",\"max_age\":604800}\n2 < Server: cloudflare\n2 < Set-Cookie: __cfduid=d629e20ec36ace0212f8f3a94a0489f241607002477; expires=Sat, 02-Jan-21 13:34:37 GMT; path=\/; domain=.reqres.in; HttpOnly; SameSite=Lax; Secure\n2 < Transfer-Encoding: chunked\n2 < Vary: Accept-Encoding\n2 < Via: 1.1 vegur\n2 < X-Powered-By: Express\n2 < cf-request-id: 06ca68ec42000031e830af0000000001\n{\"page\":1,\"per_page\":6,\"total\":12,\"total_pages\":2,\"data\":[{\"id\":1,\"name\":\"cerulean\",\"year\":2000,\"color\":\"#98B2D1\",\"pantone_value\":\"15-4020\"},{\"id\":2,\"name\":\"fuchsia rose\",\"year\":2001,\"color\":\"#C74375\",\"pantone_value\":\"17-2031\"},{\"id\":3,\"name\":\"true red\",\"year\":2002,\"color\":\"#BF1932\",\"pantone_value\":\"19-1664\"},{\"id\":4,\"name\":\"aqua sky\",\"year\":2003,\"color\":\"#7BC4C4\",\"pantone_value\":\"14-4811\"},{\"id\":5,\"name\":\"tigerlily\",\"year\":2004,\"color\":\"#E2583E\",\"pantone_value\":\"17-1456\"},{\"id\":6,\"name\":\"blue turquoise\",\"year\":2005,\"color\":\"#53B0AE\",\"pantone_value\":\"15-5217\"}],\"support\":{\"url\":\"https:\/\/reqres.in\/#support-heading\",\"text\":\"To keep ReqRes free, contributions towards server costs are appreciated!\"}}","line":9}},{"name":"status 200","result":{"duration":7500,"status":"passed"},"match":{"location":"karate","arguments":[]},"keyword":"Then","line":10},{"name":"response.page == 1","result":{"duration":398200,"status":"passed"},"match":{"location":"karate","arguments":[]},"keyword":"And","line":11},{"name":"match response.page == '##'","result":{"duration":240200,"status":"passed"},"match":{"location":"karate","arguments":[]},"keyword":"And","line":12,"doc_string":{"content_type":"","value":"19:04:38.197 after scenario inside config","line":12}}],"tags":[{"name":"@ddt","line":4}]},{"line":19,"name":"DDT Test Case","description":"","id":"ddt-test-case","type":"scenario","keyword":"Scenario Outline","steps":[{"name":"url \"http:\/\/reqres.in\"","result":{"duration":80800,"status":"passed"},"match":{"location":"karate","arguments":[]},"keyword":"Given","line":7,"doc_string":{"content_type":"","value":"19:04:38.199 from karate-config.js file","line":7}},{"name":"path \"\/api\/users?page='5'\"","result":{"duration":1299900,"status":"passed"},"match":{"location":"karate","arguments":[]},"keyword":"And","line":8},{"name":"method GET","result":{"duration":177668500,"status":"passed"},"match":{"location":"karate","arguments":[]},"keyword":"When","line":9,"doc_string":{"content_type":"","value":"19:04:38.202 request:\n1 > GET http:\/\/reqres.in\/api\/users%3Fpage='5'\n1 > Accept-Encoding: gzip,deflate\n1 > Connection: Keep-Alive\n1 > Host: reqres.in\n1 > User-Agent: Apache-HttpClient\/4.5.12 (Java\/1.8.0_251)\n\n19:04:38.302 response time in milliseconds: 100.72\n1 < 301\n1 < CF-RAY: 5fbdaa8d9ce42e88-BOM\n1 < Cache-Control: max-age=3600\n1 < Connection: keep-alive\n1 < Date: Thu, 03 Dec 2020 13:34:37 GMT\n1 < Expires: Thu, 03 Dec 2020 14:34:37 GMT\n1 < Location: https:\/\/reqres.in\/api\/users%3Fpage='5'\n1 < NEL: {\"report_to\":\"cf-nel\",\"max_age\":604800}\n1 < Report-To: {\"endpoints\":[{\"url\":\"https:\\\/\\\/a.nel.cloudflare.com\\\/report?s=5b%2BujP2Lbgag65dNEBilvZayswmsv3R614mf1DdpAgcWdp6g1BejRLdPOAKQ%2FJhXgrZoXqR2av9spc6PwbvIuUX96pzVvz1gdb8%3D\"}],\"group\":\"cf-nel\",\"max_age\":604800}\n1 < Server: cloudflare\n1 < Transfer-Encoding: chunked\n1 < Vary: Accept-Encoding\n1 < cf-request-id: 06ca68ec7e00002e88ca995000000001\n\n19:04:38.303 request:\n2 > GET http:\/\/reqres.in\/api\/users%3Fpage='5'\n2 > Accept-Encoding: gzip,deflate\n2 > Connection: Keep-Alive\n2 > Host: reqres.in\n2 > User-Agent: Apache-HttpClient\/4.5.12 (Java\/1.8.0_251)\n\n19:04:38.378 response time in milliseconds: 72.96\n2 < 200\n2 < Access-Control-Allow-Origin: *\n2 < Age: 835\n2 < CF-Cache-Status: HIT\n2 < CF-RAY: 5fbdaa8e598b318d-BOM\n2 < Cache-Control: max-age=14400\n2 < Connection: keep-alive\n2 < Content-Type: application\/json; charset=utf-8\n2 < Date: Thu, 03 Dec 2020 13:34:37 GMT\n2 < Etag: W\/\"2c1-N6Rqerxquq2kgQhL51EiSg4x0R8\"\n2 < Expect-CT: max-age=604800, report-uri=\"https:\/\/report-uri.cloudflare.com\/cdn-cgi\/beacon\/expect-ct\"\n2 < NEL: {\"report_to\":\"cf-nel\",\"max_age\":604800}\n2 < Report-To: {\"endpoints\":[{\"url\":\"https:\\\/\\\/a.nel.cloudflare.com\\\/report?s=1zqQDFWOcnonDu6JpVVzsEBuQRD6opWfz%2BMeBSlwBjyH%2Bg9hKvAPx4H%2F4MkmkAbFo6cMskBs84vAmZaZaJ%2F%2BnULe6LweANm45LA%3D\"}],\"group\":\"cf-nel\",\"max_age\":604800}\n2 < Server: cloudflare\n2 < Set-Cookie: __cfduid=d339299b6a4991cb54ddc58c7cbc502741607002477; expires=Sat, 02-Jan-21 13:34:37 GMT; path=\/; domain=.reqres.in; HttpOnly; SameSite=Lax; Secure\n2 < Transfer-Encoding: chunked\n2 < Vary: Accept-Encoding\n2 < Via: 1.1 vegur\n2 < X-Powered-By: Express\n2 < cf-request-id: 06ca68ecf70000318daa8c9000000001\n{\"page\":1,\"per_page\":6,\"total\":12,\"total_pages\":2,\"data\":[{\"id\":1,\"name\":\"cerulean\",\"year\":2000,\"color\":\"#98B2D1\",\"pantone_value\":\"15-4020\"},{\"id\":2,\"name\":\"fuchsia rose\",\"year\":2001,\"color\":\"#C74375\",\"pantone_value\":\"17-2031\"},{\"id\":3,\"name\":\"true red\",\"year\":2002,\"color\":\"#BF1932\",\"pantone_value\":\"19-1664\"},{\"id\":4,\"name\":\"aqua sky\",\"year\":2003,\"color\":\"#7BC4C4\",\"pantone_value\":\"14-4811\"},{\"id\":5,\"name\":\"tigerlily\",\"year\":2004,\"color\":\"#E2583E\",\"pantone_value\":\"17-1456\"},{\"id\":6,\"name\":\"blue turquoise\",\"year\":2005,\"color\":\"#53B0AE\",\"pantone_value\":\"15-5217\"}],\"support\":{\"url\":\"https:\/\/reqres.in\/#support-heading\",\"text\":\"To keep ReqRes free, contributions towards server costs are appreciated!\"}}","line":9}},{"name":"status 200","result":{"duration":18300,"status":"passed"},"match":{"location":"karate","arguments":[]},"keyword":"Then","line":10},{"name":"response.page == 1","result":{"duration":1070700,"status":"passed"},"match":{"location":"karate","arguments":[]},"keyword":"And","line":11},{"name":"match response.page == '##'","result":{"duration":497200,"status":"passed"},"match":{"location":"karate","arguments":[]},"keyword":"And","line":12,"doc_string":{"content_type":"","value":"19:04:38.381 after scenario inside config","line":12}}],"tags":[{"name":"@ddt","line":4}]}],"name":"FeatureFiles\/karate10.feature","description":"Karate Test Suite 10\nData driven testing","id":"karate-test-suite-10","keyword":"Feature","uri":"FeatureFiles\/karate10.feature"}]