[{"line":1,"elements":[{"line":4,"name":"URL and PATH usage test case1","description":"","id":"url-and-path-usage-test-case1","type":"scenario","keyword":"Scenario","steps":[{"name":"url \"http:\/\/reqres.in\"","result":{"duration":1948300,"status":"passed"},"match":{"location":"karate","arguments":[]},"keyword":"Given","line":6,"doc_string":{"content_type":"","value":"19:04:32.741 from karate-config.js file","line":6}},{"name":"path \"\/api\/users?page=2\"","result":{"duration":1739600,"status":"passed"},"match":{"location":"karate","arguments":[]},"keyword":"And","line":7},{"name":"method GET","result":{"duration":718871200,"status":"passed"},"match":{"location":"karate","arguments":[]},"keyword":"When","line":8,"doc_string":{"content_type":"","value":"19:04:33.100 request:\n1 > GET http:\/\/reqres.in\/api\/users%3Fpage=2\n1 > Accept-Encoding: gzip,deflate\n1 > Connection: Keep-Alive\n1 > Host: reqres.in\n1 > User-Agent: Apache-HttpClient\/4.5.12 (Java\/1.8.0_251)\n\n19:04:33.242 response time in milliseconds: 137.07\n1 < 301\n1 < CF-RAY: 5fbdaa6e0a0e2e8f-BOM\n1 < Cache-Control: max-age=3600\n1 < Connection: keep-alive\n1 < Date: Thu, 03 Dec 2020 13:34:32 GMT\n1 < Expires: Thu, 03 Dec 2020 14:34:32 GMT\n1 < Location: https:\/\/reqres.in\/api\/users%3Fpage=2\n1 < NEL: {\"report_to\":\"cf-nel\",\"max_age\":604800}\n1 < Report-To: {\"endpoints\":[{\"url\":\"https:\\\/\\\/a.nel.cloudflare.com\\\/report?s=LWcC8nCF9irbZD4HEdVMeIBPUe5ZpGW4fSJ7RWph%2BPFit%2BQSLpAYwSNlmnaOu121n8FDW2q2%2BUaR9qdUTXHi%2BRfndKA79Oc5lTw%3D\"}],\"group\":\"cf-nel\",\"max_age\":604800}\n1 < Server: cloudflare\n1 < Transfer-Encoding: chunked\n1 < Vary: Accept-Encoding\n1 < cf-request-id: 06ca68d8c300002e8f3d385000000001\n\n19:04:33.247 request:\n2 > GET http:\/\/reqres.in\/api\/users%3Fpage=2\n2 > Accept-Encoding: gzip,deflate\n2 > Connection: Keep-Alive\n2 > Host: reqres.in\n2 > User-Agent: Apache-HttpClient\/4.5.12 (Java\/1.8.0_251)\n\n19:04:33.556 response time in milliseconds: 301.99\n2 < 200\n2 < Access-Control-Allow-Origin: *\n2 < Age: 6906\n2 < CF-Cache-Status: HIT\n2 < CF-RAY: 5fbdaa6ff86331b7-BOM\n2 < Cache-Control: max-age=14400\n2 < Connection: keep-alive\n2 < Content-Type: application\/json; charset=utf-8\n2 < Date: Thu, 03 Dec 2020 13:34:32 GMT\n2 < Etag: W\/\"2c1-N6Rqerxquq2kgQhL51EiSg4x0R8\"\n2 < Expect-CT: max-age=604800, report-uri=\"https:\/\/report-uri.cloudflare.com\/cdn-cgi\/beacon\/expect-ct\"\n2 < NEL: {\"report_to\":\"cf-nel\",\"max_age\":604800}\n2 < Report-To: {\"endpoints\":[{\"url\":\"https:\\\/\\\/a.nel.cloudflare.com\\\/report?s=WZ3m0%2BFoTdeqRPWIX7UbAPV1S8cxZHI3odnnsWW2xMsI5rfluwsak2XFw%2FbsAFvAOt%2Fh3KPW1sYWSey1rRdiFw0dq1Qck5a6BHg%3D\"}],\"group\":\"cf-nel\",\"max_age\":604800}\n2 < Server: cloudflare\n2 < Set-Cookie: __cfduid=d9440c9b903d1bda6bff4ee0bf9f306301607002472; expires=Sat, 02-Jan-21 13:34:32 GMT; path=\/; domain=.reqres.in; HttpOnly; SameSite=Lax; Secure\n2 < Transfer-Encoding: chunked\n2 < Vary: Accept-Encoding\n2 < Via: 1.1 vegur\n2 < X-Powered-By: Express\n2 < cf-request-id: 06ca68d9fe000031b707998000000001\n{\"page\":1,\"per_page\":6,\"total\":12,\"total_pages\":2,\"data\":[{\"id\":1,\"name\":\"cerulean\",\"year\":2000,\"color\":\"#98B2D1\",\"pantone_value\":\"15-4020\"},{\"id\":2,\"name\":\"fuchsia rose\",\"year\":2001,\"color\":\"#C74375\",\"pantone_value\":\"17-2031\"},{\"id\":3,\"name\":\"true red\",\"year\":2002,\"color\":\"#BF1932\",\"pantone_value\":\"19-1664\"},{\"id\":4,\"name\":\"aqua sky\",\"year\":2003,\"color\":\"#7BC4C4\",\"pantone_value\":\"14-4811\"},{\"id\":5,\"name\":\"tigerlily\",\"year\":2004,\"color\":\"#E2583E\",\"pantone_value\":\"17-1456\"},{\"id\":6,\"name\":\"blue turquoise\",\"year\":2005,\"color\":\"#53B0AE\",\"pantone_value\":\"15-5217\"}],\"support\":{\"url\":\"https:\/\/reqres.in\/#support-heading\",\"text\":\"To keep ReqRes free, contributions towards server costs are appreciated!\"}}","line":8}},{"name":"status 200","result":{"duration":34100,"status":"passed"},"match":{"location":"karate","arguments":[]},"keyword":"Then","line":9},{"name":"response.page == 1","result":{"duration":21154500,"status":"passed"},"match":{"location":"karate","arguments":[]},"keyword":"And","line":10},{"name":"match response.page == '##'","result":{"duration":5549900,"status":"passed"},"match":{"location":"karate","arguments":[]},"keyword":"And","line":11,"doc_string":{"content_type":"","value":"19:04:33.597 after scenario inside config","line":11}}]}],"name":"FeatureFiles\/calledfeature.feature","description":"Karate called test suite\nUsing URL and PATH","id":"karate-called-test-suite","keyword":"Feature","uri":"FeatureFiles\/calledfeature.feature"}]